<svg xmlns="http://www.w3.org/2000/svg" width="97" height="64" viewBox="0 0 97 64">
    <g fill="none" fill-rule="evenodd">
        <g>
            <g>
                <g>
                    <path fill="#86C5F2" d="M86.36 35.621v10.622c0 2.058-1.98 3.724-4.417 3.724-2.442 0-4.417-1.666-4.417-3.724V35.621M54.644 29.676v15.878c0 2.762-2.24 4.996-4.998 4.996-2.761 0-4.995-2.234-4.995-4.996V29.676M22.538 38.285v7.197c0 2.802-2.272 5.068-5.07 5.068-2.801 0-5.067-2.266-5.067-5.068v-7.197" transform="translate(-767 -834) translate(680 757) translate(88 78)"/>
                    <path stroke="#000C7C" stroke-linecap="round" stroke-linejoin="round" stroke-width="3" d="M21.926 1.898v42.994c0 3.957-3.21 7.157-7.16 7.157-3.956 0-7.157-3.2-7.157-7.157V1.898h14.317z" transform="translate(-767 -834) translate(680 757) translate(88 78)"/>
                    <path stroke="#000C7C" stroke-linecap="round" stroke-linejoin="round" stroke-width="3" d="M21.926 1.898v42.994c0 3.957-3.21 7.157-7.16 7.157-3.956 0-7.157-3.2-7.157-7.157V1.898M2.932.997L26.598.997M54.644 1.647v42.997c0 3.954-3.207 7.157-7.154 7.157-3.96 0-7.161-3.203-7.161-7.157V1.647h14.315z" transform="translate(-767 -834) translate(680 757) translate(88 78)"/>
                    <path stroke="#000C7C" stroke-linecap="round" stroke-linejoin="round" stroke-width="3" d="M54.644 1.647v42.997c0 3.954-3.207 7.157-7.154 7.157-3.96 0-7.161-3.203-7.161-7.157V1.647M35.649.749L59.317.749M87.36 1.399v42.997c0 3.954-3.203 7.157-7.156 7.157-3.96 0-7.16-3.203-7.16-7.157V1.399H87.36z" transform="translate(-767 -834) translate(680 757) translate(88 78)"/>
                    <path stroke="#000C7C" stroke-linecap="round" stroke-linejoin="round" stroke-width="3" d="M87.36 1.399v42.997c0 3.954-3.203 7.157-7.156 7.157-3.96 0-7.16-3.203-7.16-7.157V1.399M68.367.5L92.035.5" transform="translate(-767 -834) translate(680 757) translate(88 78)"/>
                    <path stroke="#000C7C" stroke-linecap="round" stroke-linejoin="round" stroke-width="3" d="M7.609 24.206L.5 24.206.5 61.457 94.345 61.457 94.345 24.206 87.901 24.206M21.926 24.206L40.329 24.206M54.644 24.206L73.044 24.206M7.609 38.285L21.926 38.285M41.147 29.112L54.644 29.112M73.825 34.415L87.361 34.415" transform="translate(-767 -834) translate(680 757) translate(88 78)"/>
                </g>
            </g>
        </g>
    </g>
</svg>
