<svg xmlns="http://www.w3.org/2000/svg" width="77" height="90" viewBox="0 0 77 90">
    <g fill="none" fill-rule="evenodd">
        <g>
            <g>
                <g>
                    <path fill="#86C5F2" d="M57.776 13.56c-12.561-7.672-21.574-1.822-21.574-1.822-10.355 1.63-12.368 9.204-12.368 9.204-6.712 6.712 1.629 11.123 1.629 11.123-.401 2.507 1.689 3.356 3.775 3.601 1.73-2.579 5.786-4.699 11.059-5.88.192-1.864 2.077-3.332 4.4-3.332.933 0 1.797.238 2.512.641.995-2.57 4.26-4.46 8.145-4.46 4.674 0 8.463 2.732 8.463 6.101 0 .758-.2 1.48-.551 2.15.369.131.738.262 1.086.404 1.179-.775 1.478-1.718 1.478-1.718s4.507-8.342-8.054-16.013" transform="translate(-483 -268) translate(390 211) translate(94 58)"/>
                    <path stroke="#000C7C" stroke-linecap="round" stroke-linejoin="round" stroke-width="3" d="M72.884 85.517s-8.821-11.122-8.821-18.025c0-6.905 5.239-18.24 5.239-18.24h-.001c3.255-4.933 5.152-10.8 5.152-17.105C74.453 14.668 59.93.5 42.015.5 24.1.5 9.577 14.67 9.577 32.147c0 .737.035 1.466.086 2.19l-.086-.02L.972 49.08s-2.301 4.028 3.26 4.22h3.643s.222 11.746.576 16.11c.343 4.22 2.235 8.101 9.396 8.244 9.012.18 13.424-.192 17.643 9.78" transform="translate(-483 -268) translate(390 211) translate(94 58)"/>
                    <path stroke="#000C7C" stroke-linecap="round" stroke-linejoin="round" stroke-width="3" d="M55.674 42.178c.383.575.958 5.562 0 12.273-.959 6.712-4.603 22.821 1.342 27.04" transform="translate(-483 -268) translate(390 211) translate(94 58)"/>
                    <path stroke="#000C7C" stroke-linecap="round" stroke-linejoin="round" stroke-width="3" d="M56.123 49.945s.03-8.342-6.298-9.492c-6.328-1.151-16.012 2.876-17.546-4.794-1.534-7.671 6.903-5.85 6.903-5.85s1.726-5.369 7-3.93c0 0 3.739-5.658 8.533-3.069" transform="translate(-483 -268) translate(390 211) translate(94 58)"/>
                    <path stroke="#000C7C" stroke-linecap="round" stroke-linejoin="round" stroke-width="3" d="M32.279 35.659s-8.343 1.246-7.576-3.548c0 0-8.341-4.411-1.63-11.123 0 0 2.014-7.574 12.37-9.204 0 0 9.013-5.85 21.574 1.82 12.56 7.672 8.053 16.014 8.053 16.014s-.958 3.068-6.327 2.685c-5.37-.384-9.59 3.068-9.59 3.068" transform="translate(-483 -268) translate(390 211) translate(94 58)"/>
                    <path stroke="#000C7C" stroke-linecap="round" stroke-linejoin="round" stroke-width="3" d="M63.067 31.64s3.73 1.91.95 5.36c-2.782 3.452-9.685 5.753-9.685 5.753" transform="translate(-483 -268) translate(390 211) translate(94 58)"/>
                </g>
            </g>
        </g>
    </g>
</svg>
