<svg xmlns="http://www.w3.org/2000/svg" width="75" height="99" viewBox="0 0 75 99">
    <g fill="none" fill-rule="evenodd">
        <g>
            <g>
                <g>
                    <path stroke="#000C7C" stroke-linecap="round" stroke-linejoin="round" stroke-width="2.85" d="M11.82 38.269c-.667 2.365-.48 4.437-.48 4.437 0 13.99 11.002 25.333 24.572 25.333 13.571 0 24.572-11.342 24.572-25.333 0 0-.04-7.134-1.426-9.38" transform="translate(-778 -527) translate(680 484) translate(99 44)"/>
                    <path stroke="#000C7C" stroke-linecap="round" stroke-linejoin="round" stroke-width="2.85" d="M11.733 38.755c-.312-.069-.636-.105-.967-.105-2.797 0-5.066 2.587-5.066 5.78 0 3.191 2.269 5.779 5.066 5.779M60.588 38.65c2.798 0 5.066 2.588 5.066 5.779 0 3.192-2.268 5.78-5.066 5.78-.35 0-.693-.041-1.021-.118" transform="translate(-778 -527) translate(680 484) translate(99 44)"/>
                    <path stroke="#000C7C" stroke-linecap="round" stroke-linejoin="round" stroke-width="2.85" d="M70.999 21.59c-4.15 1.74-5.778-.658-6.31-1.85-.068-.2-.144-.392-.216-.589 0-.005-.005-.02-.005-.02v.005C60.44 8.154 51.644.474 35.792.474c-13.228 0-22.43 5.919-27.278 14.813v-.003S6.176 19.809.476 18.225c0 0 1.254 3.835 5.105 4.716-.702 2.867-1.062 5.904-1.062 9.051 0 0-.106 6.378 1.182 10.714 0 0 .979-4.483 6.12-4.437l1.477-5.232.003-.003c1.247.496 2.85.74 4.907.605 0 0-1.032-2.638.871-5.598.155-.24 1.03 7.6 20.822 5.068 0 0-4.275-4.038-1.743-6.73 0 0 7.235 8.91 20.638 6.776l.262.171s1.878 5.269 1.53 5.324c.523.147 4.11.688 5.192 3.76 0 0 1.6-5.936 1.285-10.418-.136-1.945-.37-3.847-.698-5.697 3.118.482 8.286-6.237 4.632-4.705zM28.312 66.804v1.235c0 3.41 3.403 6.175 7.6 6.175 4.198 0 7.6-2.765 7.6-6.175v-1.235M27.944 68.039s-16.652 4.97-18.236 9.877c-1.583 4.909-3.325 17.892-3.325 17.892M43.88 68.039s16.653 4.97 18.236 9.877c1.583 4.909 3.325 17.892 3.325 17.892M23.621 90.266h0c-2.303 0-4.171-1.867-4.171-4.171v-4.17h8.344v4.17c0 2.304-1.868 4.171-4.173 4.171z" transform="translate(-778 -527) translate(680 484) translate(99 44)"/>
                    <path fill="#86C5F2" d="M25.727 52.431c0 1.746-1.712 3.16-3.823 3.16-2.111 0-3.822-1.414-3.822-3.16 0-1.745 1.71-3.16 3.822-3.16 2.111 0 3.823 1.415 3.823 3.16M54.224 52.431c0 1.746-1.712 3.16-3.822 3.16-2.112 0-3.824-1.414-3.824-3.16 0-1.745 1.712-3.16 3.824-3.16 2.11 0 3.822 1.415 3.822 3.16" transform="translate(-778 -527) translate(680 484) translate(99 44)"/>
                    <path fill="#1D1D1B" d="M25.121 45.274c0 .894-.724 1.619-1.618 1.619-.894 0-1.618-.725-1.618-1.619 0-.893.724-1.618 1.618-1.618.894 0 1.618.725 1.618 1.618M49.94 45.274c0 .894-.725 1.619-1.619 1.619s-1.617-.725-1.617-1.619c0-.893.723-1.618 1.617-1.618s1.62.725 1.62 1.618" transform="translate(-778 -527) translate(680 484) translate(99 44)"/>
                </g>
            </g>
        </g>
    </g>
</svg>
