<svg xmlns="http://www.w3.org/2000/svg" width="103" height="98" viewBox="0 0 103 98">
    <g fill="none" fill-rule="evenodd">
        <g>
            <g>
                <g>
                    <path fill="#86C5F2" d="M95.845 49.904H4.279c-2.115 0-3.829-1.715-3.829-3.829 0-2.115 1.714-3.828 3.829-3.828h91.566c2.115 0 3.828 1.713 3.828 3.828 0 2.114-1.713 3.829-3.828 3.829" transform="translate(-1634 -259) translate(1550 211) translate(85 49)"/>
                    <path stroke="#000C7C" stroke-linecap="round" stroke-linejoin="round" stroke-width="2.7" d="M95.845 49.904H4.279c-2.115 0-3.829-1.715-3.829-3.829 0-2.115 1.714-3.828 3.829-3.828h91.566c2.115 0 3.828 1.713 3.828 3.828 0 2.114-1.713 3.829-3.828 3.829zM9.702 50.415s.638 40.2 0 40.838M91.414 50.415s.638 40.2 0 40.838M53.735 14.793h0c-3.663-2.115-4.93-6.841-2.815-10.504C53.035.626 57.763-.64 61.425 1.474c3.662 2.115 4.93 6.843 2.814 10.505-2.115 3.662-6.842 4.93-10.504 2.814z" transform="translate(-1634 -259) translate(1550 211) translate(85 49)"/>
                    <path fill="#FFF" d="M50.255 18.701l-.871-.503c-4.017-2.32-9.153-.942-11.473 3.073L27.726 38.916c-2.128 3.685-1.862 8.087.302 11.429v38.852c0 3.304 2.679 5.982 5.982 5.982 3.304 0 5.983-2.678 5.983-5.982V50.722l12.87-22.29c1.966-3.408.798-7.764-2.608-9.731" transform="translate(-1634 -259) translate(1550 211) translate(85 49)"/>
                    <path stroke="#000C7C" stroke-linecap="round" stroke-linejoin="round" stroke-width="2.7" d="M50.255 18.701l-.871-.503c-4.017-2.32-9.153-.942-11.473 3.073L27.726 38.916c-2.128 3.685-1.862 8.087.302 11.429v38.852c0 3.304 2.679 5.982 5.982 5.982 3.304 0 5.983-2.678 5.983-5.982V50.722l12.87-22.29c1.966-3.408.798-7.764-2.608-9.731z" transform="translate(-1634 -259) translate(1550 211) translate(85 49)"/>
                    <g>
                        <path fill="#FFF" d="M.5 5.029v13.346l12.818 12.817c1.285 1.285 3.368 1.285 4.653 0 1.285-1.285 1.285-3.368 0-4.653l-8.48-8.48V.426" transform="translate(-1634 -259) translate(1550 211) translate(85 49) translate(44.1 23.63)"/>
                        <path stroke="#000C7C" stroke-linecap="round" stroke-linejoin="round" stroke-width="2.7" d="M.5 5.029v13.346l12.818 12.817c1.285 1.285 3.368 1.285 4.653 0 1.285-1.285 1.285-3.368 0-4.653l-8.48-8.48V.426" transform="translate(-1634 -259) translate(1550 211) translate(85 49) translate(44.1 23.63)"/>
                    </g>
                </g>
            </g>
        </g>
    </g>
</svg>
