<svg xmlns="http://www.w3.org/2000/svg" width="97" height="87" viewBox="0 0 97 87">
    <g fill="none" fill-rule="evenodd">
        <g>
            <g>
                <g>
                    <path fill="#86C5F2" d="M42.994 37.657L89.407 84.09c.302.303-.276-.054-.704-.052l-1.639-.614c-14.829.087-23.368-7.39-33.854-17.876l-4.89-4.908c-.233-.234-.333-.57-.265-.893l1.901-9.058c.07-.335-.033-.683-.275-.925l-9.101-9.102" transform="translate(-767 -271) translate(680 211) translate(89 62)"/>
                    <path stroke="#000C7C" stroke-linecap="round" stroke-linejoin="round" stroke-width="3.15" d="M.525 12.004L34.503 46.572 42.295 38.853 45.983 35.092 12.005.524M46.697 35.684L93.11 82.117c.302.303.09.82-.337.823-14.83.087-29.077-5.766-39.563-16.252l-4.89-4.909c-.233-.234-.333-.57-.266-.893l1.902-9.058c.07-.335-.034-.682-.275-.925l-9.102-9.101M35.935 25.772L25.291 36.416M4.114 82.061L11.137 82.061M17.417 82.061L24.438 82.061M30.719 82.061L37.74 82.061M44.02 82.061L51.042 82.061M57.322 82.061L64.344 82.061" transform="translate(-767 -271) translate(680 211) translate(89 62)"/>
                </g>
            </g>
        </g>
    </g>
</svg>
