<svg xmlns="http://www.w3.org/2000/svg" width="25" height="31" viewBox="0 0 25 31">
    <defs>
        <filter id="z0i5kejdfa">
            <feColorMatrix in="SourceGraphic" values="0 0 0 0 1.000000 0 0 0 0 1.000000 0 0 0 0 1.000000 0 0 0 1.000000 0"/>
        </filter>
    </defs>
    <g fill="none" fill-rule="evenodd">
        <g>
            <g filter="url(#z0i5kejdfa)" transform="translate(-625 -664) translate(481 319)">
                <g>
                    <path fill="#6080E8" d="M12.342 18.126c-3.148 0-5.701-2.626-5.701-5.864 0-3.24 2.553-5.865 5.701-5.865 3.149 0 5.701 2.626 5.701 5.865 0 3.238-2.552 5.864-5.7 5.864M12.35 0C5.53 0 0 5.688 0 12.704c0 6.975 12.342 17.76 12.342 17.76s12.342-10.785 12.342-17.76h.016C24.7 5.688 19.171 0 12.35 0" transform="translate(144 345)"/>
                </g>
            </g>
        </g>
    </g>
</svg>
