<svg xmlns="http://www.w3.org/2000/svg" width="68" height="54" viewBox="0 0 68 54">
    <g fill="none" fill-rule="evenodd" stroke-linecap="round" stroke-linejoin="round">
        <g stroke="#2E4388" stroke-width="4.5">
            <g>
                <g>
                    <path d="M24.261 0L0 23.999 24.261 48M0 23.889L62 23.889" transform="translate(-318 -849) translate(195 629) translate(126 223)"/>
                </g>
            </g>
        </g>
    </g>
</svg>
