<svg xmlns="http://www.w3.org/2000/svg" width="37" height="27" viewBox="0 0 37 27">
    <defs>
        <filter id="wsxhxe1uqa">
            <feColorMatrix in="SourceGraphic" values="0 0 0 0 0.376471 0 0 0 0 0.501961 0 0 0 0 0.909804 0 0 0 1.000000 0"/>
        </filter>
    </defs>
    <g fill="none" fill-rule="evenodd" stroke-linecap="round" stroke-linejoin="round">
        <g>
            <g filter="url(#wsxhxe1uqa)" transform="translate(-136 -717) translate(101 486)">
                <g>
                    <path stroke="#020203" stroke-width="3.078" d="M12.493 0L0 11.659 12.493 23.319M.513 12.138L32.73 12.138" transform="translate(37 233)"/>
                </g>
            </g>
        </g>
    </g>
</svg>
