<svg xmlns="http://www.w3.org/2000/svg" width="146" height="107" viewBox="0 0 146 107">
    <g fill="none" fill-rule="evenodd">
        <g>
            <g>
                <g>
                    <path stroke="#000C7C" stroke-linecap="round" stroke-linejoin="round" stroke-width="5" d="M131.229 101.576H10.193C4.84 101.576.5 97.236.5 91.884V23.76c0-5.353 4.34-9.693 9.693-9.693h121.036c5.353 0 9.692 4.34 9.692 9.693v68.124c0 5.353-4.34 9.692-9.692 9.692zM81.395.5H60.027c-7.493 0-13.568 6.075-13.568 13.567h48.503C94.962 6.575 88.888.5 81.395.5zM30.505 14.067h-16.77c0-2.81 2.279-5.087 5.088-5.087h6.595c2.809 0 5.087 2.277 5.087 5.087z" transform="translate(-1612 -782) translate(1266 616) translate(348 168)"/>
                    <path stroke="#000C7C" stroke-linecap="round" stroke-linejoin="round" stroke-width="5" d="M28.645 36.967H14.048c-1.027 0-1.859-.832-1.859-1.86V27.52c0-1.027.832-1.86 1.86-1.86h14.596c1.027 0 1.86.833 1.86 1.86v7.588c0 1.027-.833 1.859-1.86 1.859z" transform="translate(-1612 -782) translate(1266 616) translate(348 168)"/>
                    <path fill="#86C5F2" d="M96.882 58.667c0 14.454-11.718 26.17-26.172 26.17-14.453 0-26.17-11.716-26.17-26.17 0-14.454 11.717-26.171 26.17-26.171 14.455 0 26.172 11.717 26.172 26.17" transform="translate(-1612 -782) translate(1266 616) translate(348 168)"/>
                    <path stroke="#000C7C" stroke-linecap="round" stroke-linejoin="round" stroke-width="4.752" d="M104.382 58.667c0 18.596-15.076 33.671-33.672 33.671-18.595 0-33.67-15.075-33.67-33.67 0-18.597 15.075-33.672 33.67-33.672 18.597 0 33.672 15.075 33.672 33.671z" transform="translate(-1612 -782) translate(1266 616) translate(348 168)"/>
                </g>
            </g>
        </g>
    </g>
</svg>
