<svg xmlns="http://www.w3.org/2000/svg" width="119" height="135" viewBox="0 0 119 135">
    <defs>
        <filter id="krrnifnjua">
            <feColorMatrix in="SourceGraphic" values="0 0 0 0 0.439216 0 0 0 0 0.549020 0 0 0 0 0.913725 0 0 0 1.000000 0"/>
        </filter>
    </defs>
    <g fill="none" fill-rule="evenodd">
        <g>
            <g filter="url(#krrnifnjua)" transform="translate(-253 -441) translate(100 262)">
                <g stroke="#FFF">
                    <path stroke-width="4" d="M57.553 39.663h-8.787v-8.785c0-.321-.26-.582-.583-.582h-8.05c-.323 0-.584.26-.584.582v8.785h-8.787c-.322 0-.583.26-.583.583v8.05c0 .323.261.584.583.584h8.787v8.787c0 .32.261.583.583.583h8.051c.322 0 .583-.262.583-.583V48.88h8.787c.322 0 .583-.261.583-.583v-8.051c0-.322-.26-.583-.583-.583z" transform="translate(155 181)"/>
                    <path stroke-linecap="round" stroke-linejoin="round" stroke-width="5" d="M26.654 14.876H61.66c1.765 0 3.195-1.906 3.195-4.258v-5.86C64.855 2.406 63.425.5 61.66.5H26.654C24.89.5 23.46 2.406 23.46 4.758v5.86c0 2.351 1.43 4.258 3.194 4.258z" transform="translate(155 181)"/>
                    <path stroke-linecap="round" stroke-linejoin="round" stroke-width="5" d="M87.815 87.204V10.883c0-1.766-1.43-3.195-3.194-3.195H64.855v2.93c0 2.352-1.43 4.258-3.194 4.258H26.654c-1.763 0-3.194-1.906-3.194-4.258v-2.93H3.694C1.93 7.688.5 9.117.5 10.883V114.92c0 1.765 1.43 3.194 3.194 3.194h69.252M64.929 71.426L15.369 71.426M72.946 84.603L15.369 84.603M59.463 97.781L15.369 97.781" transform="translate(155 181)"/>
                    <path stroke-linecap="round" stroke-linejoin="round" stroke-width="5" d="M113.76 108.447c0 11.732-9.511 21.243-21.243 21.243s-21.243-9.511-21.243-21.243 9.51-21.243 21.243-21.243c11.732 0 21.243 9.51 21.243 21.243z" transform="translate(155 181)"/>
                    <path stroke-linecap="round" stroke-linejoin="round" stroke-width="5" d="M84.402 108.907L89.603 114.003 99.768 102.891" transform="translate(155 181)"/>
                </g>
            </g>
        </g>
    </g>
</svg>
