<svg xmlns="http://www.w3.org/2000/svg" width="80" height="80" viewBox="0 0 80 80">
    <defs>
        <filter id="cd8d458k0a">
            <feColorMatrix in="SourceGraphic" values="0 0 0 0 1.000000 0 0 0 0 1.000000 0 0 0 0 1.000000 0 0 0 1.000000 0"/>
        </filter>
    </defs>
    <g fill="none" fill-rule="evenodd">
        <g>
            <g transform="translate(-1690 -20) translate(1690 20)">
                <circle cx="40" cy="40" r="40" fill="#6080E8"/>
                <g stroke-linecap="round" stroke-linejoin="round" filter="url(#cd8d458k0a)">
                    <g stroke="#333" stroke-width="2.762">
                        <path d="M0.276 14.325L20.253 0.258 39.768 14.325" transform="translate(20 23)"/>
                        <path d="M5.247 10.824L5.247 33.683 35.514 33.683 35.514 11.258" transform="translate(20 23)"/>
                    </g>
                </g>
            </g>
        </g>
    </g>
</svg>
