<svg xmlns="http://www.w3.org/2000/svg" width="25" height="31" viewBox="0 0 25 31">
    <g fill="none" fill-rule="evenodd">
        <g fill="#6080E8">
            <g>
                <g>
                    <path d="M12.342 18.126c-3.148 0-5.701-2.626-5.701-5.864 0-3.24 2.553-5.865 5.701-5.865 3.149 0 5.701 2.626 5.701 5.865 0 3.238-2.552 5.864-5.7 5.864M12.35 0C5.53 0 0 5.688 0 12.704c0 6.975 12.342 17.76 12.342 17.76s12.342-10.785 12.342-17.76h.016C24.7 5.688 19.171 0 12.35 0" transform="translate(-1305 -850) translate(1171 319) translate(134 531)"/>
                </g>
            </g>
        </g>
    </g>
</svg>
